C:\Users\kurs\Documents\NetBeansProjects\KW25-PrognozaPogody22\src\main\java\pl\alx\pogoda\model\Main.java
C:\Users\kurs\Documents\NetBeansProjects\KW25-PrognozaPogody22\src\main\java\pl\alx\pogoda\model\Sys.java
C:\Users\kurs\Documents\NetBeansProjects\KW25-PrognozaPogody22\src\main\java\pl\alx\pogoda\model\Clouds.java
C:\Users\kurs\Documents\NetBeansProjects\KW25-PrognozaPogody22\src\main\java\pl\alx\PobieraczPogody.java
C:\Users\kurs\Documents\NetBeansProjects\KW25-PrognozaPogody22\src\main\java\pl\alx\pogoda\model\Weather.java
C:\Users\kurs\Documents\NetBeansProjects\KW25-PrognozaPogody22\src\main\java\pl\alx\PrzeliczanieStopni.java
C:\Users\kurs\Documents\NetBeansProjects\KW25-PrognozaPogody22\src\main\java\pl\alx\pogoda\model\Coord.java
C:\Users\kurs\Documents\NetBeansProjects\KW25-PrognozaPogody22\src\main\java\pl\alx\pogoda\model\Pogoda.java
C:\Users\kurs\Documents\NetBeansProjects\KW25-PrognozaPogody22\src\main\java\pl\alx\MainAppwww.java
C:\Users\kurs\Documents\NetBeansProjects\KW25-PrognozaPogody22\src\main\java\pl\alx\pogoda\model\Wind.java
C:\Users\kurs\Documents\NetBeansProjects\KW25-PrognozaPogody22\src\main\java\pl\alx\FXMLController.java
