INDEX VERSION 1.131+D:\Kurs\poznan_zjazd1\PracaDomowa1\.metadata\.plugins\org.eclipse.jdt.core
22687809.index
1870878615.index
1518219961.index
2511617568.index
3854475047.index
984225034.index
2773834657.index
398058497.index
3886402465.index
1622776731.index
3523662158.index
1455593261.index
3464255924.index
728296283.index
1084624933.index
4289135590.index
2301944148.index
1988513050.index
326805980.index
14682029.index
